<svg 
 xmlns="http://www.w3.org/2000/svg"
 xmlns:xlink="http://www.w3.org/1999/xlink"
 width="10px" height="8px">
<path fill-rule="evenodd"  fill="rgb(255, 255, 255)"
 d="M9.822,3.557 L6.534,0.182 C6.296,-0.063 5.911,-0.063 5.673,0.182 C5.435,0.426 5.435,0.821 5.673,1.066 L7.921,3.374 L0.609,3.374 C0.273,3.374 -0.000,3.654 -0.000,3.999 C-0.000,4.344 0.273,4.624 0.609,4.624 L7.921,4.624 L5.673,6.932 C5.435,7.175 5.435,7.572 5.673,7.816 C5.792,7.937 5.948,7.998 6.103,7.998 C6.259,7.998 6.415,7.937 6.534,7.816 L9.822,4.441 C10.059,4.197 10.059,3.801 9.822,3.557 Z"/>
</svg>